%YAML 1.1
%TAG !u! tag:unity3d.com,2011:
--- !u!29 &1
OcclusionCullingSettings:
  m_ObjectHideFlags: 0
  serializedVersion: 2
  m_OcclusionBakeSettings:
    smallestOccluder: 5
    smallestHole: 0.25
    backfaceThreshold: 100
  m_SceneGUID: 00000000000000000000000000000000
  m_OcclusionCullingData: {fileID: 0}
--- !u!104 &2
RenderSettings:
  m_ObjectHideFlags: 0
  serializedVersion: 8
  m_Fog: 0
  m_FogColor: {r: 0.5, g: 0.5, b: 0.5, a: 1}
  m_FogMode: 3
  m_FogDensity: 0.01
  m_LinearFogStart: 0
  m_LinearFogEnd: 300
  m_AmbientSkyColor: {r: 0.212, g: 0.227, b: 0.259, a: 1}
  m_AmbientEquatorColor: {r: 0.114, g: 0.125, b: 0.133, a: 1}
  m_AmbientGroundColor: {r: 0.047, g: 0.043, b: 0.035, a: 1}
  m_AmbientIntensity: 1
  m_AmbientMode: 0
  m_SubtractiveShadowColor: {r: 0.42, g: 0.478, b: 0.627, a: 1}
  m_SkyboxMaterial: {fileID: 10304, guid: 0000000000000000f000000000000000, type: 0}
  m_HaloStrength: 0.5
  m_FlareStrength: 1
  m_FlareFadeSpeed: 3
  m_HaloTexture: {fileID: 0}
  m_SpotCookie: {fileID: 10001, guid: 0000000000000000e000000000000000, type: 0}
  m_DefaultReflectionMode: 0
  m_DefaultReflectionResolution: 128
  m_ReflectionBounces: 1
  m_ReflectionIntensity: 1
  m_CustomReflection: {fileID: 0}
  m_Sun: {fileID: 0}
  m_IndirectSpecularColor: {r: 0, g: 0, b: 0, a: 1}
--- !u!157 &3
LightmapSettings:
  m_ObjectHideFlags: 0
  serializedVersion: 11
  m_GIWorkflowMode: 1
  m_GISettings:
    serializedVersion: 2
    m_BounceScale: 1
    m_IndirectOutputScale: 1
    m_AlbedoBoost: 1
    m_TemporalCoherenceThreshold: 1
    m_EnvironmentLightingMode: 0
    m_EnableBakedLightmaps: 1
    m_EnableRealtimeLightmaps: 1
  m_LightmapEditorSettings:
    serializedVersion: 9
    m_Resolution: 2
    m_BakeResolution: 40
    m_TextureWidth: 1024
    m_TextureHeight: 1024
    m_AO: 0
    m_AOMaxDistance: 1
    m_CompAOExponent: 1
    m_CompAOExponentDirect: 0
    m_Padding: 2
    m_LightmapParameters: {fileID: 0}
    m_LightmapsBakeMode: 1
    m_TextureCompression: 1
    m_FinalGather: 0
    m_FinalGatherFiltering: 1
    m_FinalGatherRayCount: 256
    m_ReflectionCompression: 2
    m_MixedBakeMode: 2
    m_BakeBackend: 0
    m_PVRSampling: 1
    m_PVRDirectSampleCount: 32
    m_PVRSampleCount: 500
    m_PVRBounces: 2
    m_PVRFiltering: 0
    m_PVRFilteringMode: 1
    m_PVRCulling: 1
    m_PVRFilteringGaussRadiusDirect: 1
    m_PVRFilteringGaussRadiusIndirect: 5
    m_PVRFilteringGaussRadiusAO: 2
    m_PVRFilteringAtrousColorSigma: 1
    m_PVRFilteringAtrousNormalSigma: 1
    m_PVRFilteringAtrousPositionSigma: 1
  m_LightingDataAsset: {fileID: 0}
  m_UseShadowmask: 1
--- !u!196 &4
NavMeshSettings:
  serializedVersion: 2
  m_ObjectHideFlags: 0
  m_BuildSettings:
    serializedVersion: 2
    agentTypeID: 0
    agentRadius: 0.5
    agentHeight: 2
    agentSlope: 45
    agentClimb: 0.4
    ledgeDropHeight: 0
    maxJumpAcrossDistance: 0
    minRegionArea: 2
    manualCellSize: 0
    cellSize: 0.16666667
    manualTileSize: 0
    tileSize: 256
    accuratePlacement: 0
  m_NavMeshData: {fileID: 0}
--- !u!1001 &69382504
Prefab:
  m_ObjectHideFlags: 0
  serializedVersion: 2
  m_Modification:
    m_TransformParent: {fileID: 76219943}
    m_Modifications:
    - target: {fileID: 22486468, guid: 5c48fcaa0038d944f91d06c1f9b98156, type: 2}
      propertyPath: m_LocalPosition.x
      value: 0
      objectReference: {fileID: 0}
    - target: {fileID: 22486468, guid: 5c48fcaa0038d944f91d06c1f9b98156, type: 2}
      propertyPath: m_LocalPosition.y
      value: 0
      objectReference: {fileID: 0}
    - target: {fileID: 22486468, guid: 5c48fcaa0038d944f91d06c1f9b98156, type: 2}
      propertyPath: m_LocalPosition.z
      value: 0
      objectReference: {fileID: 0}
    - target: {fileID: 22486468, guid: 5c48fcaa0038d944f91d06c1f9b98156, type: 2}
      propertyPath: m_LocalRotation.x
      value: 0
      objectReference: {fileID: 0}
    - target: {fileID: 22486468, guid: 5c48fcaa0038d944f91d06c1f9b98156, type: 2}
      propertyPath: m_LocalRotation.y
      value: 0
      objectReference: {fileID: 0}
    - target: {fileID: 22486468, guid: 5c48fcaa0038d944f91d06c1f9b98156, type: 2}
      propertyPath: m_LocalRotation.z
      value: 0
      objectReference: {fileID: 0}
    - target: {fileID: 22486468, guid: 5c48fcaa0038d944f91d06c1f9b98156, type: 2}
      propertyPath: m_LocalRotation.w
      value: 1
      objectReference: {fileID: 0}
    - target: {fileID: 22486468, guid: 5c48fcaa0038d944f91d06c1f9b98156, type: 2}
      propertyPath: m_RootOrder
      value: 0
      objectReference: {fileID: 0}
    - target: {fileID: 22486468, guid: 5c48fcaa0038d944f91d06c1f9b98156, type: 2}
      propertyPath: m_AnchoredPosition.x
      value: 0
      objectReference: {fileID: 0}
    - target: {fileID: 22486468, guid: 5c48fcaa0038d944f91d06c1f9b98156, type: 2}
      propertyPath: m_AnchoredPosition.y
      value: 0
      objectReference: {fileID: 0}
    - target: {fileID: 22486468, guid: 5c48fcaa0038d944f91d06c1f9b98156, type: 2}
      propertyPath: m_SizeDelta.x
      value: 0
      objectReference: {fileID: 0}
    - target: {fileID: 22486468, guid: 5c48fcaa0038d944f91d06c1f9b98156, type: 2}
      propertyPath: m_SizeDelta.y
      value: 0
      objectReference: {fileID: 0}
    - target: {fileID: 22486468, guid: 5c48fcaa0038d944f91d06c1f9b98156, type: 2}
      propertyPath: m_AnchorMin.x
      value: 0
      objectReference: {fileID: 0}
    - target: {fileID: 22486468, guid: 5c48fcaa0038d944f91d06c1f9b98156, type: 2}
      propertyPath: m_AnchorMin.y
      value: 0
      objectReference: {fileID: 0}
    - target: {fileID: 22486468, guid: 5c48fcaa0038d944f91d06c1f9b98156, type: 2}
      propertyPath: m_AnchorMax.x
      value: 1
      objectReference: {fileID: 0}
    - target: {fileID: 22486468, guid: 5c48fcaa0038d944f91d06c1f9b98156, type: 2}
      propertyPath: m_AnchorMax.y
      value: 1
      objectReference: {fileID: 0}
    - target: {fileID: 22486468, guid: 5c48fcaa0038d944f91d06c1f9b98156, type: 2}
      propertyPath: m_Pivot.x
      value: 0.5
      objectReference: {fileID: 0}
    - target: {fileID: 22486468, guid: 5c48fcaa0038d944f91d06c1f9b98156, type: 2}
      propertyPath: m_Pivot.y
      value: 0.5
      objectReference: {fileID: 0}
    - target: {fileID: 22402130, guid: 5c48fcaa0038d944f91d06c1f9b98156, type: 2}
      propertyPath: m_AnchoredPosition.x
      value: 0
      objectReference: {fileID: 0}
    m_RemovedComponents: []
  m_ParentPrefab: {fileID: 100100000, guid: 5c48fcaa0038d944f91d06c1f9b98156, type: 2}
  m_IsPrefabParent: 0
--- !u!1001 &76219942
Prefab:
  m_ObjectHideFlags: 0
  serializedVersion: 2
  m_Modification:
    m_TransformParent: {fileID: 0}
    m_Modifications:
    - target: {fileID: 22485940, guid: bc8fb7091c73f9a4aa84239569fc34c0, type: 2}
      propertyPath: m_LocalPosition.x
      value: 0
      objectReference: {fileID: 0}
    - target: {fileID: 22485940, guid: bc8fb7091c73f9a4aa84239569fc34c0, type: 2}
      propertyPath: m_LocalPosition.y
      value: 0
      objectReference: {fileID: 0}
    - target: {fileID: 22485940, guid: bc8fb7091c73f9a4aa84239569fc34c0, type: 2}
      propertyPath: m_LocalPosition.z
      value: 0
      objectReference: {fileID: 0}
    - target: {fileID: 22485940, guid: bc8fb7091c73f9a4aa84239569fc34c0, type: 2}
      propertyPath: m_LocalRotation.x
      value: 0
      objectReference: {fileID: 0}
    - target: {fileID: 22485940, guid: bc8fb7091c73f9a4aa84239569fc34c0, type: 2}
      propertyPath: m_LocalRotation.y
      value: 0
      objectReference: {fileID: 0}
    - target: {fileID: 22485940, guid: bc8fb7091c73f9a4aa84239569fc34c0, type: 2}
      propertyPath: m_LocalRotation.z
      value: 0
      objectReference: {fileID: 0}
    - target: {fileID: 22485940, guid: bc8fb7091c73f9a4aa84239569fc34c0, type: 2}
      propertyPath: m_LocalRotation.w
      value: 1
      objectReference: {fileID: 0}
    - target: {fileID: 22485940, guid: bc8fb7091c73f9a4aa84239569fc34c0, type: 2}
      propertyPath: m_RootOrder
      value: 2
      objectReference: {fileID: 0}
    - target: {fileID: 22485940, guid: bc8fb7091c73f9a4aa84239569fc34c0, type: 2}
      propertyPath: m_AnchoredPosition.x
      value: 0
      objectReference: {fileID: 0}
    - target: {fileID: 22485940, guid: bc8fb7091c73f9a4aa84239569fc34c0, type: 2}
      propertyPath: m_AnchoredPosition.y
      value: 0
      objectReference: {fileID: 0}
    - target: {fileID: 22485940, guid: bc8fb7091c73f9a4aa84239569fc34c0, type: 2}
      propertyPath: m_SizeDelta.x
      value: 0
      objectReference: {fileID: 0}
    - target: {fileID: 22485940, guid: bc8fb7091c73f9a4aa84239569fc34c0, type: 2}
      propertyPath: m_SizeDelta.y
      value: 0
      objectReference: {fileID: 0}
    - target: {fileID: 22485940, guid: bc8fb7091c73f9a4aa84239569fc34c0, type: 2}
      propertyPath: m_AnchorMin.x
      value: 0
      objectReference: {fileID: 0}
    - target: {fileID: 22485940, guid: bc8fb7091c73f9a4aa84239569fc34c0, type: 2}
      propertyPath: m_AnchorMin.y
      value: 0
      objectReference: {fileID: 0}
    - target: {fileID: 22485940, guid: bc8fb7091c73f9a4aa84239569fc34c0, type: 2}
      propertyPath: m_AnchorMax.x
      value: 0
      objectReference: {fileID: 0}
    - target: {fileID: 22485940, guid: bc8fb7091c73f9a4aa84239569fc34c0, type: 2}
      propertyPath: m_AnchorMax.y
      value: 0
      objectReference: {fileID: 0}
    - target: {fileID: 22485940, guid: bc8fb7091c73f9a4aa84239569fc34c0, type: 2}
      propertyPath: m_Pivot.x
      value: 0
      objectReference: {fileID: 0}
    - target: {fileID: 22485940, guid: bc8fb7091c73f9a4aa84239569fc34c0, type: 2}
      propertyPath: m_Pivot.y
      value: 0
      objectReference: {fileID: 0}
    - target: {fileID: 22383782, guid: bc8fb7091c73f9a4aa84239569fc34c0, type: 2}
      propertyPath: m_SortingOrder
      value: 10
      objectReference: {fileID: 0}
    m_RemovedComponents: []
  m_ParentPrefab: {fileID: 100100000, guid: bc8fb7091c73f9a4aa84239569fc34c0, type: 2}
  m_IsPrefabParent: 0
--- !u!224 &76219943 stripped
RectTransform:
  m_PrefabParentObject: {fileID: 22485940, guid: bc8fb7091c73f9a4aa84239569fc34c0,
    type: 2}
  m_PrefabInternal: {fileID: 76219942}
--- !u!1001 &684719722
Prefab:
  m_ObjectHideFlags: 0
  serializedVersion: 2
  m_Modification:
    m_TransformParent: {fileID: 76219943}
    m_Modifications:
    - target: {fileID: 22483454, guid: a2fe3c148d0e2fe488560e18f3efd94e, type: 2}
      propertyPath: m_LocalPosition.x
      value: 0
      objectReference: {fileID: 0}
    - target: {fileID: 22483454, guid: a2fe3c148d0e2fe488560e18f3efd94e, type: 2}
      propertyPath: m_LocalPosition.y
      value: 0
      objectReference: {fileID: 0}
    - target: {fileID: 22483454, guid: a2fe3c148d0e2fe488560e18f3efd94e, type: 2}
      propertyPath: m_LocalPosition.z
      value: 0
      objectReference: {fileID: 0}
    - target: {fileID: 22483454, guid: a2fe3c148d0e2fe488560e18f3efd94e, type: 2}
      propertyPath: m_LocalRotation.x
      value: 0
      objectReference: {fileID: 0}
    - target: {fileID: 22483454, guid: a2fe3c148d0e2fe488560e18f3efd94e, type: 2}
      propertyPath: m_LocalRotation.y
      value: 0
      objectReference: {fileID: 0}
    - target: {fileID: 22483454, guid: a2fe3c148d0e2fe488560e18f3efd94e, type: 2}
      propertyPath: m_LocalRotation.z
      value: 0
      objectReference: {fileID: 0}
    - target: {fileID: 22483454, guid: a2fe3c148d0e2fe488560e18f3efd94e, type: 2}
      propertyPath: m_LocalRotation.w
      value: 1
      objectReference: {fileID: 0}
    - target: {fileID: 22483454, guid: a2fe3c148d0e2fe488560e18f3efd94e, type: 2}
      propertyPath: m_RootOrder
      value: 2
      objectReference: {fileID: 0}
    - target: {fileID: 22483454, guid: a2fe3c148d0e2fe488560e18f3efd94e, type: 2}
      propertyPath: m_AnchoredPosition.x
      value: 0
      objectReference: {fileID: 0}
    - target: {fileID: 22483454, guid: a2fe3c148d0e2fe488560e18f3efd94e, type: 2}
      propertyPath: m_AnchoredPosition.y
      value: 0.000015258789
      objectReference: {fileID: 0}
    - target: {fileID: 22483454, guid: a2fe3c148d0e2fe488560e18f3efd94e, type: 2}
      propertyPath: m_SizeDelta.x
      value: 0
      objectReference: {fileID: 0}
    - target: {fileID: 22483454, guid: a2fe3c148d0e2fe488560e18f3efd94e, type: 2}
      propertyPath: m_SizeDelta.y
      value: 0
      objectReference: {fileID: 0}
    - target: {fileID: 22483454, guid: a2fe3c148d0e2fe488560e18f3efd94e, type: 2}
      propertyPath: m_AnchorMin.x
      value: 0
      objectReference: {fileID: 0}
    - target: {fileID: 22483454, guid: a2fe3c148d0e2fe488560e18f3efd94e, type: 2}
      propertyPath: m_AnchorMin.y
      value: 0
      objectReference: {fileID: 0}
    - target: {fileID: 22483454, guid: a2fe3c148d0e2fe488560e18f3efd94e, type: 2}
      propertyPath: m_AnchorMax.x
      value: 1
      objectReference: {fileID: 0}
    - target: {fileID: 22483454, guid: a2fe3c148d0e2fe488560e18f3efd94e, type: 2}
      propertyPath: m_AnchorMax.y
      value: 1
      objectReference: {fileID: 0}
    - target: {fileID: 22483454, guid: a2fe3c148d0e2fe488560e18f3efd94e, type: 2}
      propertyPath: m_Pivot.x
      value: 0.5
      objectReference: {fileID: 0}
    - target: {fileID: 22483454, guid: a2fe3c148d0e2fe488560e18f3efd94e, type: 2}
      propertyPath: m_Pivot.y
      value: 0.5
      objectReference: {fileID: 0}
    - target: {fileID: 195208, guid: a2fe3c148d0e2fe488560e18f3efd94e, type: 2}
      propertyPath: m_IsActive
      value: 0
      objectReference: {fileID: 0}
    - target: {fileID: 22434220, guid: a2fe3c148d0e2fe488560e18f3efd94e, type: 2}
      propertyPath: m_AnchorMin.y
      value: 1
      objectReference: {fileID: 0}
    - target: {fileID: 22434220, guid: a2fe3c148d0e2fe488560e18f3efd94e, type: 2}
      propertyPath: m_AnchorMax.y
      value: 1
      objectReference: {fileID: 0}
    - target: {fileID: 22434220, guid: a2fe3c148d0e2fe488560e18f3efd94e, type: 2}
      propertyPath: m_AnchoredPosition.x
      value: 20
      objectReference: {fileID: 0}
    - target: {fileID: 22434220, guid: a2fe3c148d0e2fe488560e18f3efd94e, type: 2}
      propertyPath: m_AnchoredPosition.y
      value: -57.5
      objectReference: {fileID: 0}
    - target: {fileID: 22434220, guid: a2fe3c148d0e2fe488560e18f3efd94e, type: 2}
      propertyPath: m_SizeDelta.x
      value: 600
      objectReference: {fileID: 0}
    - target: {fileID: 22434220, guid: a2fe3c148d0e2fe488560e18f3efd94e, type: 2}
      propertyPath: m_SizeDelta.y
      value: 75
      objectReference: {fileID: 0}
    - target: {fileID: 22400022, guid: a2fe3c148d0e2fe488560e18f3efd94e, type: 2}
      propertyPath: m_AnchorMin.y
      value: 1
      objectReference: {fileID: 0}
    - target: {fileID: 22400022, guid: a2fe3c148d0e2fe488560e18f3efd94e, type: 2}
      propertyPath: m_AnchorMax.y
      value: 1
      objectReference: {fileID: 0}
    - target: {fileID: 22400022, guid: a2fe3c148d0e2fe488560e18f3efd94e, type: 2}
      propertyPath: m_AnchoredPosition.x
      value: 20
      objectReference: {fileID: 0}
    - target: {fileID: 22400022, guid: a2fe3c148d0e2fe488560e18f3efd94e, type: 2}
      propertyPath: m_AnchoredPosition.y
      value: -132.5
      objectReference: {fileID: 0}
    - target: {fileID: 22400022, guid: a2fe3c148d0e2fe488560e18f3efd94e, type: 2}
      propertyPath: m_SizeDelta.x
      value: 600
      objectReference: {fileID: 0}
    - target: {fileID: 22400022, guid: a2fe3c148d0e2fe488560e18f3efd94e, type: 2}
      propertyPath: m_SizeDelta.y
      value: 75
      objectReference: {fileID: 0}
    - target: {fileID: 22491442, guid: a2fe3c148d0e2fe488560e18f3efd94e, type: 2}
      propertyPath: m_AnchorMin.y
      value: 1
      objectReference: {fileID: 0}
    - target: {fileID: 22491442, guid: a2fe3c148d0e2fe488560e18f3efd94e, type: 2}
      propertyPath: m_AnchorMax.y
      value: 1
      objectReference: {fileID: 0}
    - target: {fileID: 22491442, guid: a2fe3c148d0e2fe488560e18f3efd94e, type: 2}
      propertyPath: m_AnchoredPosition.x
      value: 19.999996
      objectReference: {fileID: 0}
    - target: {fileID: 22491442, guid: a2fe3c148d0e2fe488560e18f3efd94e, type: 2}
      propertyPath: m_AnchoredPosition.y
      value: -207.5
      objectReference: {fileID: 0}
    - target: {fileID: 22491442, guid: a2fe3c148d0e2fe488560e18f3efd94e, type: 2}
      propertyPath: m_SizeDelta.x
      value: 600
      objectReference: {fileID: 0}
    - target: {fileID: 22491442, guid: a2fe3c148d0e2fe488560e18f3efd94e, type: 2}
      propertyPath: m_SizeDelta.y
      value: 75
      objectReference: {fileID: 0}
    - target: {fileID: 224026397186693538, guid: a2fe3c148d0e2fe488560e18f3efd94e,
        type: 2}
      propertyPath: m_AnchorMin.y
      value: 1
      objectReference: {fileID: 0}
    - target: {fileID: 224026397186693538, guid: a2fe3c148d0e2fe488560e18f3efd94e,
        type: 2}
      propertyPath: m_AnchorMax.y
      value: 1
      objectReference: {fileID: 0}
    - target: {fileID: 224026397186693538, guid: a2fe3c148d0e2fe488560e18f3efd94e,
        type: 2}
      propertyPath: m_AnchoredPosition.x
      value: 20
      objectReference: {fileID: 0}
    - target: {fileID: 224026397186693538, guid: a2fe3c148d0e2fe488560e18f3efd94e,
        type: 2}
      propertyPath: m_AnchoredPosition.y
      value: -282.5
      objectReference: {fileID: 0}
    - target: {fileID: 224026397186693538, guid: a2fe3c148d0e2fe488560e18f3efd94e,
        type: 2}
      propertyPath: m_SizeDelta.x
      value: 600
      objectReference: {fileID: 0}
    - target: {fileID: 224026397186693538, guid: a2fe3c148d0e2fe488560e18f3efd94e,
        type: 2}
      propertyPath: m_SizeDelta.y
      value: 75
      objectReference: {fileID: 0}
    m_RemovedComponents: []
  m_ParentPrefab: {fileID: 100100000, guid: a2fe3c148d0e2fe488560e18f3efd94e, type: 2}
  m_IsPrefabParent: 0
--- !u!1001 &822798700
Prefab:
  m_ObjectHideFlags: 0
  serializedVersion: 2
  m_Modification:
    m_TransformParent: {fileID: 0}
    m_Modifications:
    - target: {fileID: 4581408474601762, guid: f79e1d4e03d9a15419c2b9697fe9de5f, type: 2}
      propertyPath: m_LocalPosition.x
      value: 0
      objectReference: {fileID: 0}
    - target: {fileID: 4581408474601762, guid: f79e1d4e03d9a15419c2b9697fe9de5f, type: 2}
      propertyPath: m_LocalPosition.y
      value: 0
      objectReference: {fileID: 0}
    - target: {fileID: 4581408474601762, guid: f79e1d4e03d9a15419c2b9697fe9de5f, type: 2}
      propertyPath: m_LocalPosition.z
      value: 0
      objectReference: {fileID: 0}
    - target: {fileID: 4581408474601762, guid: f79e1d4e03d9a15419c2b9697fe9de5f, type: 2}
      propertyPath: m_LocalRotation.x
      value: 0
      objectReference: {fileID: 0}
    - target: {fileID: 4581408474601762, guid: f79e1d4e03d9a15419c2b9697fe9de5f, type: 2}
      propertyPath: m_LocalRotation.y
      value: 0
      objectReference: {fileID: 0}
    - target: {fileID: 4581408474601762, guid: f79e1d4e03d9a15419c2b9697fe9de5f, type: 2}
      propertyPath: m_LocalRotation.z
      value: 0
      objectReference: {fileID: 0}
    - target: {fileID: 4581408474601762, guid: f79e1d4e03d9a15419c2b9697fe9de5f, type: 2}
      propertyPath: m_LocalRotation.w
      value: 1
      objectReference: {fileID: 0}
    - target: {fileID: 4581408474601762, guid: f79e1d4e03d9a15419c2b9697fe9de5f, type: 2}
      propertyPath: m_RootOrder
      value: 3
      objectReference: {fileID: 0}
    m_RemovedComponents: []
  m_ParentPrefab: {fileID: 100100000, guid: f79e1d4e03d9a15419c2b9697fe9de5f, type: 2}
  m_IsPrefabParent: 0
--- !u!1 &946758686
GameObject:
  m_ObjectHideFlags: 0
  m_PrefabParentObject: {fileID: 0}
  m_PrefabInternal: {fileID: 0}
  serializedVersion: 5
  m_Component:
  - component: {fileID: 946758688}
  - component: {fileID: 946758687}
  m_Layer: 0
  m_Name: Directional Light
  m_TagString: Untagged
  m_Icon: {fileID: 0}
  m_NavMeshLayer: 0
  m_StaticEditorFlags: 0
  m_IsActive: 1
--- !u!108 &946758687
Light:
  m_ObjectHideFlags: 0
  m_PrefabParentObject: {fileID: 0}
  m_PrefabInternal: {fileID: 0}
  m_GameObject: {fileID: 946758686}
  m_Enabled: 1
  serializedVersion: 8
  m_Type: 1
  m_Color: {r: 1, g: 0.95686275, b: 0.8392157, a: 1}
  m_Intensity: 1
  m_Range: 10
  m_SpotAngle: 30
  m_CookieSize: 10
  m_Shadows:
    m_Type: 2
    m_Resolution: -1
    m_CustomResolution: -1
    m_Strength: 0.5
    m_Bias: 0.05
    m_NormalBias: 0.4
    m_NearPlane: 0.2
  m_Cookie: {fileID: 0}
  m_DrawHalo: 0
  m_Flare: {fileID: 0}
  m_RenderMode: 0
  m_CullingMask:
    serializedVersion: 2
    m_Bits: 4294967295
  m_Lightmapping: 4
  m_AreaSize: {x: 1, y: 1}
  m_BounceIntensity: 1
  m_FalloffTable:
    m_Table[0]: 0
    m_Table[1]: 0
    m_Table[2]: 0
    m_Table[3]: 0
    m_Table[4]: 0
    m_Table[5]: 0
    m_Table[6]: 0
    m_Table[7]: 0
    m_Table[8]: 0
    m_Table[9]: 0
    m_Table[10]: 0
    m_Table[11]: 0
    m_Table[12]: 0
  m_ColorTemperature: 6570
  m_UseColorTemperature: 0
  m_ShadowRadius: 0
  m_ShadowAngle: 0
--- !u!4 &946758688
Transform:
  m_ObjectHideFlags: 0
  m_PrefabParentObject: {fileID: 0}
  m_PrefabInternal: {fileID: 0}
  m_GameObject: {fileID: 946758686}
  m_LocalRotation: {x: 0.29496408, y: 0.37300247, z: -0.41017947, w: 0.77821475}
  m_LocalPosition: {x: 0, y: 3, z: 0}
  m_LocalScale: {x: 1, y: 1, z: 1}
  m_Children: []
  m_Father: {fileID: 0}
  m_RootOrder: 0
  m_LocalEulerAnglesHint: {x: 49.915, y: 31.722002, z: -40.52}
--- !u!1001 &1192392653
Prefab:
  m_ObjectHideFlags: 0
  serializedVersion: 2
  m_Modification:
    m_TransformParent: {fileID: 0}
    m_Modifications:
    - target: {fileID: 400000, guid: d1866c312731e0e438fcc928b4ee86fe, type: 2}
      propertyPath: m_LocalPosition.x
      value: 0
      objectReference: {fileID: 0}
    - target: {fileID: 400000, guid: d1866c312731e0e438fcc928b4ee86fe, type: 2}
      propertyPath: m_LocalPosition.y
      value: 0
      objectReference: {fileID: 0}
    - target: {fileID: 400000, guid: d1866c312731e0e438fcc928b4ee86fe, type: 2}
      propertyPath: m_LocalPosition.z
      value: 0
      objectReference: {fileID: 0}
    - target: {fileID: 400000, guid: d1866c312731e0e438fcc928b4ee86fe, type: 2}
      propertyPath: m_LocalRotation.x
      value: 0
      objectReference: {fileID: 0}
    - target: {fileID: 400000, guid: d1866c312731e0e438fcc928b4ee86fe, type: 2}
      propertyPath: m_LocalRotation.y
      value: 0
      objectReference: {fileID: 0}
    - target: {fileID: 400000, guid: d1866c312731e0e438fcc928b4ee86fe, type: 2}
      propertyPath: m_LocalRotation.z
      value: 0
      objectReference: {fileID: 0}
    - target: {fileID: 400000, guid: d1866c312731e0e438fcc928b4ee86fe, type: 2}
      propertyPath: m_LocalRotation.w
      value: 1
      objectReference: {fileID: 0}
    - target: {fileID: 400000, guid: d1866c312731e0e438fcc928b4ee86fe, type: 2}
      propertyPath: m_RootOrder
      value: 1
      objectReference: {fileID: 0}
    m_RemovedComponents: []
  m_ParentPrefab: {fileID: 100100000, guid: d1866c312731e0e438fcc928b4ee86fe, type: 2}
  m_IsPrefabParent: 0
--- !u!1001 &1430414823
Prefab:
  m_ObjectHideFlags: 0
  serializedVersion: 2
  m_Modification:
    m_TransformParent: {fileID: 0}
    m_Modifications:
    - target: {fileID: 4516702231131990, guid: 1ba4494e0df33c447aae50396efed356, type: 2}
      propertyPath: m_LocalPosition.x
      value: 0
      objectReference: {fileID: 0}
    - target: {fileID: 4516702231131990, guid: 1ba4494e0df33c447aae50396efed356, type: 2}
      propertyPath: m_LocalPosition.y
      value: 0
      objectReference: {fileID: 0}
    - target: {fileID: 4516702231131990, guid: 1ba4494e0df33c447aae50396efed356, type: 2}
      propertyPath: m_LocalPosition.z
      value: 0
      objectReference: {fileID: 0}
    - target: {fileID: 4516702231131990, guid: 1ba4494e0df33c447aae50396efed356, type: 2}
      propertyPath: m_LocalRotation.x
      value: -0
      objectReference: {fileID: 0}
    - target: {fileID: 4516702231131990, guid: 1ba4494e0df33c447aae50396efed356, type: 2}
      propertyPath: m_LocalRotation.y
      value: -0
      objectReference: {fileID: 0}
    - target: {fileID: 4516702231131990, guid: 1ba4494e0df33c447aae50396efed356, type: 2}
      propertyPath: m_LocalRotation.z
      value: -0
      objectReference: {fileID: 0}
    - target: {fileID: 4516702231131990, guid: 1ba4494e0df33c447aae50396efed356, type: 2}
      propertyPath: m_LocalRotation.w
      value: 1
      objectReference: {fileID: 0}
    - target: {fileID: 4516702231131990, guid: 1ba4494e0df33c447aae50396efed356, type: 2}
      propertyPath: m_RootOrder
      value: 5
      objectReference: {fileID: 0}
    - target: {fileID: 224492109090749208, guid: 1ba4494e0df33c447aae50396efed356,
        type: 2}
      propertyPath: m_AnchorMin.y
      value: 1
      objectReference: {fileID: 0}
    - target: {fileID: 224492109090749208, guid: 1ba4494e0df33c447aae50396efed356,
        type: 2}
      propertyPath: m_AnchorMax.y
      value: 1
      objectReference: {fileID: 0}
    - target: {fileID: 224492109090749208, guid: 1ba4494e0df33c447aae50396efed356,
        type: 2}
      propertyPath: m_AnchoredPosition.x
      value: 101.5
      objectReference: {fileID: 0}
    - target: {fileID: 224492109090749208, guid: 1ba4494e0df33c447aae50396efed356,
        type: 2}
      propertyPath: m_AnchoredPosition.y
      value: -55
      objectReference: {fileID: 0}
    - target: {fileID: 224492109090749208, guid: 1ba4494e0df33c447aae50396efed356,
        type: 2}
      propertyPath: m_SizeDelta.x
      value: 163
      objectReference: {fileID: 0}
    - target: {fileID: 224492109090749208, guid: 1ba4494e0df33c447aae50396efed356,
        type: 2}
      propertyPath: m_SizeDelta.y
      value: 70
      objectReference: {fileID: 0}
    - target: {fileID: 224957163110031548, guid: 1ba4494e0df33c447aae50396efed356,
        type: 2}
      propertyPath: m_SizeDelta.x
      value: -829.8948
      objectReference: {fileID: 0}
    m_RemovedComponents: []
  m_ParentPrefab: {fileID: 100100000, guid: 1ba4494e0df33c447aae50396efed356, type: 2}
  m_IsPrefabParent: 0
--- !u!1001 &1566289476
Prefab:
  m_ObjectHideFlags: 0
  serializedVersion: 2
  m_Modification:
    m_TransformParent: {fileID: 76219943}
    m_Modifications:
    - target: {fileID: 22498224, guid: 409bd7de3a5b6374f8e82f4dc9494e4b, type: 2}
      propertyPath: m_LocalPosition.x
      value: 0
      objectReference: {fileID: 0}
    - target: {fileID: 22498224, guid: 409bd7de3a5b6374f8e82f4dc9494e4b, type: 2}
      propertyPath: m_LocalPosition.y
      value: 0
      objectReference: {fileID: 0}
    - target: {fileID: 22498224, guid: 409bd7de3a5b6374f8e82f4dc9494e4b, type: 2}
      propertyPath: m_LocalPosition.z
      value: 0
      objectReference: {fileID: 0}
    - target: {fileID: 22498224, guid: 409bd7de3a5b6374f8e82f4dc9494e4b, type: 2}
      propertyPath: m_LocalRotation.x
      value: 0
      objectReference: {fileID: 0}
    - target: {fileID: 22498224, guid: 409bd7de3a5b6374f8e82f4dc9494e4b, type: 2}
      propertyPath: m_LocalRotation.y
      value: 0
      objectReference: {fileID: 0}
    - target: {fileID: 22498224, guid: 409bd7de3a5b6374f8e82f4dc9494e4b, type: 2}
      propertyPath: m_LocalRotation.z
      value: 0
      objectReference: {fileID: 0}
    - target: {fileID: 22498224, guid: 409bd7de3a5b6374f8e82f4dc9494e4b, type: 2}
      propertyPath: m_LocalRotation.w
      value: 1
      objectReference: {fileID: 0}
    - target: {fileID: 22498224, guid: 409bd7de3a5b6374f8e82f4dc9494e4b, type: 2}
      propertyPath: m_RootOrder
      value: 3
      objectReference: {fileID: 0}
    - target: {fileID: 22498224, guid: 409bd7de3a5b6374f8e82f4dc9494e4b, type: 2}
      propertyPath: m_AnchoredPosition.x
      value: 0
      objectReference: {fileID: 0}
    - target: {fileID: 22498224, guid: 409bd7de3a5b6374f8e82f4dc9494e4b, type: 2}
      propertyPath: m_AnchoredPosition.y
      value: 0
      objectReference: {fileID: 0}
    - target: {fileID: 22498224, guid: 409bd7de3a5b6374f8e82f4dc9494e4b, type: 2}
      propertyPath: m_SizeDelta.x
      value: 0
      objectReference: {fileID: 0}
    - target: {fileID: 22498224, guid: 409bd7de3a5b6374f8e82f4dc9494e4b, type: 2}
      propertyPath: m_SizeDelta.y
      value: 0
      objectReference: {fileID: 0}
    - target: {fileID: 22498224, guid: 409bd7de3a5b6374f8e82f4dc9494e4b, type: 2}
      propertyPath: m_AnchorMin.x
      value: 0
      objectReference: {fileID: 0}
    - target: {fileID: 22498224, guid: 409bd7de3a5b6374f8e82f4dc9494e4b, type: 2}
      propertyPath: m_AnchorMin.y
      value: 0
      objectReference: {fileID: 0}
    - target: {fileID: 22498224, guid: 409bd7de3a5b6374f8e82f4dc9494e4b, type: 2}
      propertyPath: m_AnchorMax.x
      value: 1
      objectReference: {fileID: 0}
    - target: {fileID: 22498224, guid: 409bd7de3a5b6374f8e82f4dc9494e4b, type: 2}
      propertyPath: m_AnchorMax.y
      value: 1
      objectReference: {fileID: 0}
    - target: {fileID: 22498224, guid: 409bd7de3a5b6374f8e82f4dc9494e4b, type: 2}
      propertyPath: m_Pivot.x
      value: 0.5
      objectReference: {fileID: 0}
    - target: {fileID: 22498224, guid: 409bd7de3a5b6374f8e82f4dc9494e4b, type: 2}
      propertyPath: m_Pivot.y
      value: 0.5
      objectReference: {fileID: 0}
    m_RemovedComponents: []
  m_ParentPrefab: {fileID: 100100000, guid: 409bd7de3a5b6374f8e82f4dc9494e4b, type: 2}
  m_IsPrefabParent: 0
--- !u!1001 &2139526479
Prefab:
  m_ObjectHideFlags: 0
  serializedVersion: 2
  m_Modification:
    m_TransformParent: {fileID: 0}
    m_Modifications:
    - target: {fileID: 4144780063095634, guid: 2ff8b471a0394904b9399471853a3671, type: 2}
      propertyPath: m_LocalPosition.x
      value: 0
      objectReference: {fileID: 0}
    - target: {fileID: 4144780063095634, guid: 2ff8b471a0394904b9399471853a3671, type: 2}
      propertyPath: m_LocalPosition.y
      value: 0
      objectReference: {fileID: 0}
    - target: {fileID: 4144780063095634, guid: 2ff8b471a0394904b9399471853a3671, type: 2}
      propertyPath: m_LocalPosition.z
      value: 0
      objectReference: {fileID: 0}
    - target: {fileID: 4144780063095634, guid: 2ff8b471a0394904b9399471853a3671, type: 2}
      propertyPath: m_LocalRotation.x
      value: 0
      objectReference: {fileID: 0}
    - target: {fileID: 4144780063095634, guid: 2ff8b471a0394904b9399471853a3671, type: 2}
      propertyPath: m_LocalRotation.y
      value: 0
      objectReference: {fileID: 0}
    - target: {fileID: 4144780063095634, guid: 2ff8b471a0394904b9399471853a3671, type: 2}
      propertyPath: m_LocalRotation.z
      value: 0
      objectReference: {fileID: 0}
    - target: {fileID: 4144780063095634, guid: 2ff8b471a0394904b9399471853a3671, type: 2}
      propertyPath: m_LocalRotation.w
      value: 1
      objectReference: {fileID: 0}
    - target: {fileID: 4144780063095634, guid: 2ff8b471a0394904b9399471853a3671, type: 2}
      propertyPath: m_RootOrder
      value: 4
      objectReference: {fileID: 0}
    - target: {fileID: 114717289154993626, guid: 2ff8b471a0394904b9399471853a3671,
        type: 2}
      propertyPath: baseUrl
      value: http://omiyagames.com/epg_ld39/
      objectReference: {fileID: 0}
    m_RemovedComponents:
    - {fileID: 114037869312545012, guid: 2ff8b471a0394904b9399471853a3671, type: 2}
  m_ParentPrefab: {fileID: 100100000, guid: 2ff8b471a0394904b9399471853a3671, type: 2}
  m_IsPrefabParent: 0
